{
  "openapi": "3.0.1",
  "info": {
    "title": "OpenAPI definition",
    "version": "v0"
  },
  "servers": [
    {
      "url": "http://localhost:8088/api/v1",
      "description": "Generated server url"
    }
  ],
  "tags": [
    {
      "name": "Borrowings",
      "description": "Borrowing REST API endpoint"
    },
    {
      "name": "Clients",
      "description": "Client REST API endpoint"
    },
    {
      "name": "Books",
      "description": "Book REST API endpoint"
    }
  ],
  "paths": {
    "/clients/{id}": {
      "get": {
        "tags": [
          "Clients"
        ],
        "operationId": "readOne",
        "parameters": [
          {
            "name": "id",
            "in": "path",
            "required": true,
            "schema": {
              "type": "integer",
              "format": "int64"
            }
          }
        ],
        "responses": {
          "200": {
            "description": "OK",
            "content": {
              "application/json": {
                "schema": {
                  "$ref": "#/components/schemas/ClientDto"
                }
              }
            }
          }
        }
      },
      "put": {
        "tags": [
          "Clients"
        ],
        "operationId": "update",
        "parameters": [
          {
            "name": "id",
            "in": "path",
            "required": true,
            "schema": {
              "type": "integer",
              "format": "int64"
            }
          }
        ],
        "requestBody": {
          "content": {
            "application/json": {
              "schema": {
                "$ref": "#/components/schemas/ClientDto"
              }
            }
          },
          "required": true
        },
        "responses": {
          "204": {
            "description": "No Content",
            "content": {
              "application/json": {
                "schema": {
                  "$ref": "#/components/schemas/ClientDto"
                }
              }
            }
          }
        }
      },
      "delete": {
        "tags": [
          "Clients"
        ],
        "operationId": "delete",
        "parameters": [
          {
            "name": "id",
            "in": "path",
            "required": true,
            "schema": {
              "type": "integer",
              "format": "int64"
            }
          }
        ],
        "responses": {
          "204": {
            "description": "No Content"
          }
        }
      }
    },
    "/borrowings/{id}": {
      "get": {
        "tags": [
          "Borrowings"
        ],
        "operationId": "readOne_1",
        "parameters": [
          {
            "name": "id",
            "in": "path",
            "required": true,
            "schema": {
              "type": "integer",
              "format": "int64"
            }
          }
        ],
        "responses": {
          "200": {
            "description": "OK",
            "content": {
              "application/json": {
                "schema": {
                  "$ref": "#/components/schemas/BorrowingDto"
                }
              }
            }
          }
        }
      },
      "put": {
        "tags": [
          "Borrowings"
        ],
        "operationId": "update_1",
        "parameters": [
          {
            "name": "id",
            "in": "path",
            "required": true,
            "schema": {
              "type": "integer",
              "format": "int64"
            }
          }
        ],
        "requestBody": {
          "content": {
            "application/json": {
              "schema": {
                "$ref": "#/components/schemas/BorrowingDto"
              }
            }
          },
          "required": true
        },
        "responses": {
          "204": {
            "description": "No Content",
            "content": {
              "application/json": {
                "schema": {
                  "$ref": "#/components/schemas/BorrowingDto"
                }
              }
            }
          }
        }
      },
      "delete": {
        "tags": [
          "Borrowings"
        ],
        "operationId": "delete_1",
        "parameters": [
          {
            "name": "id",
            "in": "path",
            "required": true,
            "schema": {
              "type": "integer",
              "format": "int64"
            }
          }
        ],
        "responses": {
          "204": {
            "description": "No Content"
          }
        }
      }
    },
    "/books/{id}": {
      "get": {
        "tags": [
          "Books"
        ],
        "operationId": "readOne_2",
        "parameters": [
          {
            "name": "id",
            "in": "path",
            "required": true,
            "schema": {
              "type": "integer",
              "format": "int64"
            }
          }
        ],
        "responses": {
          "200": {
            "description": "OK",
            "content": {
              "application/json": {
                "schema": {
                  "$ref": "#/components/schemas/BookDto"
                }
              }
            }
          }
        }
      },
      "put": {
        "tags": [
          "Books"
        ],
        "operationId": "update_2",
        "parameters": [
          {
            "name": "id",
            "in": "path",
            "required": true,
            "schema": {
              "type": "integer",
              "format": "int64"
            }
          }
        ],
        "requestBody": {
          "content": {
            "application/json": {
              "schema": {
                "$ref": "#/components/schemas/BookDto"
              }
            }
          },
          "required": true
        },
        "responses": {
          "204": {
            "description": "No Content",
            "content": {
              "application/json": {
                "schema": {
                  "$ref": "#/components/schemas/BookDto"
                }
              }
            }
          }
        }
      },
      "delete": {
        "tags": [
          "Books"
        ],
        "operationId": "delete_2",
        "parameters": [
          {
            "name": "id",
            "in": "path",
            "required": true,
            "schema": {
              "type": "integer",
              "format": "int64"
            }
          }
        ],
        "responses": {
          "204": {
            "description": "No Content"
          }
        }
      }
    },
    "/clients": {
      "get": {
        "tags": [
          "Clients"
        ],
        "operationId": "readAll",
        "responses": {
          "200": {
            "description": "OK",
            "content": {
              "application/json": {
                "schema": {
                  "type": "array",
                  "items": {
                    "$ref": "#/components/schemas/ClientDto"
                  }
                }
              }
            }
          }
        }
      },
      "post": {
        "tags": [
          "Clients"
        ],
        "operationId": "create",
        "requestBody": {
          "content": {
            "application/json": {
              "schema": {
                "$ref": "#/components/schemas/ClientDto"
              }
            }
          },
          "required": true
        },
        "responses": {
          "200": {
            "description": "OK",
            "content": {
              "application/json": {
                "schema": {
                  "$ref": "#/components/schemas/ClientDto"
                }
              }
            }
          }
        }
      }
    },
    "/borrowings": {
      "get": {
        "tags": [
          "Borrowings"
        ],
        "operationId": "readAll_1",
        "responses": {
          "200": {
            "description": "OK",
            "content": {
              "application/json": {
                "schema": {
                  "type": "array",
                  "items": {
                    "$ref": "#/components/schemas/BorrowingDto"
                  }
                }
              }
            }
          }
        }
      },
      "post": {
        "tags": [
          "Borrowings"
        ],
        "operationId": "create_1",
        "requestBody": {
          "content": {
            "application/json": {
              "schema": {
                "$ref": "#/components/schemas/BorrowingDto"
              }
            }
          },
          "required": true
        },
        "responses": {
          "200": {
            "description": "OK",
            "content": {
              "application/json": {
                "schema": {
                  "$ref": "#/components/schemas/BorrowingDto"
                }
              }
            }
          }
        }
      }
    },
    "/books": {
      "get": {
        "tags": [
          "Books"
        ],
        "operationId": "readAll_2",
        "responses": {
          "200": {
            "description": "OK",
            "content": {
              "application/json": {
                "schema": {
                  "type": "array",
                  "items": {
                    "$ref": "#/components/schemas/BookDto"
                  }
                }
              }
            }
          }
        }
      },
      "post": {
        "tags": [
          "Books"
        ],
        "operationId": "create_2",
        "requestBody": {
          "content": {
            "application/json": {
              "schema": {
                "$ref": "#/components/schemas/BookDto"
              }
            }
          },
          "required": true
        },
        "responses": {
          "200": {
            "description": "OK",
            "content": {
              "application/json": {
                "schema": {
                  "$ref": "#/components/schemas/BookDto"
                }
              }
            }
          }
        }
      }
    },
    "/clients/count": {
      "get": {
        "tags": [
          "Clients"
        ],
        "operationId": "count",
        "responses": {
          "200": {
            "description": "OK",
            "content": {
              "application/json": {
                "schema": {
                  "type": "integer",
                  "format": "int64"
                }
              }
            }
          }
        }
      }
    },
    "/borrowings/withNotes": {
      "get": {
        "tags": [
          "Borrowings"
        ],
        "operationId": "onlyWithNotes",
        "responses": {
          "200": {
            "description": "OK",
            "content": {
              "application/json": {
                "schema": {
                  "type": "array",
                  "items": {
                    "$ref": "#/components/schemas/BorrowingDto"
                  }
                }
              }
            }
          }
        }
      }
    },
    "/borrowings/returned": {
      "get": {
        "tags": [
          "Borrowings"
        ],
        "operationId": "returned",
        "responses": {
          "200": {
            "description": "OK",
            "content": {
              "application/json": {
                "schema": {
                  "type": "array",
                  "items": {
                    "$ref": "#/components/schemas/BorrowingDto"
                  }
                }
              }
            }
          }
        }
      }
    },
    "/borrowings/notReturned": {
      "get": {
        "tags": [
          "Borrowings"
        ],
        "operationId": "notReturned",
        "responses": {
          "200": {
            "description": "OK",
            "content": {
              "application/json": {
                "schema": {
                  "type": "array",
                  "items": {
                    "$ref": "#/components/schemas/BorrowingDto"
                  }
                }
              }
            }
          }
        }
      }
    },
    "/borrowings/count": {
      "get": {
        "tags": [
          "Borrowings"
        ],
        "operationId": "count_1",
        "responses": {
          "200": {
            "description": "OK",
            "content": {
              "application/json": {
                "schema": {
                  "type": "integer",
                  "format": "int64"
                }
              }
            }
          }
        }
      }
    },
    "/borrowings/book/{id}": {
      "get": {
        "tags": [
          "Borrowings"
        ],
        "operationId": "findBorrowingsForBook",
        "parameters": [
          {
            "name": "id",
            "in": "path",
            "required": true,
            "schema": {
              "type": "integer",
              "format": "int64"
            }
          }
        ],
        "responses": {
          "200": {
            "description": "OK",
            "content": {
              "application/json": {
                "schema": {
                  "type": "array",
                  "items": {
                    "$ref": "#/components/schemas/BorrowingDto"
                  }
                }
              }
            }
          }
        }
      }
    },
    "/books/free": {
      "get": {
        "tags": [
          "Books"
        ],
        "operationId": "readAllFree",
        "responses": {
          "200": {
            "description": "OK",
            "content": {
              "application/json": {
                "schema": {
                  "type": "array",
                  "items": {
                    "$ref": "#/components/schemas/BookDto"
                  }
                }
              }
            }
          }
        }
      }
    },
    "/books/count": {
      "get": {
        "tags": [
          "Books"
        ],
        "operationId": "count_2",
        "responses": {
          "200": {
            "description": "OK",
            "content": {
              "application/json": {
                "schema": {
                  "type": "integer",
                  "format": "int64"
                }
              }
            }
          }
        }
      }
    }
  },
  "components": {
    "schemas": {
      "ClientDto": {
        "type": "object",
        "properties": {
          "id": {
            "type": "integer",
            "format": "int64"
          },
          "forename": {
            "type": "string"
          },
          "surname": {
            "type": "string"
          }
        }
      },
      "BookDto": {
        "type": "object",
        "properties": {
          "id": {
            "type": "integer",
            "format": "int64"
          },
          "name": {
            "type": "string"
          },
          "numberOfPages": {
            "type": "integer",
            "format": "int32"
          },
          "releaseDate": {
            "type": "string",
            "format": "date-time"
          },
          "authorName": {
            "type": "string"
          }
        }
      },
      "BorrowingDto": {
        "type": "object",
        "properties": {
          "id": {
            "type": "integer",
            "format": "int64"
          },
          "borrowDate": {
            "type": "string",
            "format": "date-time"
          },
          "returnDate": {
            "type": "string",
            "format": "date-time"
          },
          "note": {
            "type": "string"
          },
          "fee": {
            "type": "integer",
            "format": "int32"
          },
          "borrowed": {
            "type": "array",
            "items": {
              "$ref": "#/components/schemas/BookDto"
            }
          },
          "client": {
            "$ref": "#/components/schemas/ClientDto"
          }
        }
      }
    }
  }
}
